,Simulation Ticks,CPI,Storeset checks,Storeset checks bypassed,Violation pair added to storeset,Memory Order Violations,Mismatched memory violation catches,Adjusted number of violations
,12215281000.0,1.969892,3542291.0,0.0,38.0,39.0,18.0,21.0
,12232710000.0,1.972706,2559361.0,983090.0,38.0,39.0,18.0,21.0
