,Simulation Ticks,CPI,Storeset checks,Storeset checks bypassed,Violation pair added to storeset,Memory Order Violations,Mismatched memory violation catches,Adjusted number of violations
,12303998000.0,1.984209,3542243.0,0.0,38.0,39.0,17.0,22.0
,12225323000.0,1.971525,2559245.0,983100.0,39.0,40.0,17.0,23.0
