,Simulation Ticks,CPI,Storeset checks,Storeset checks bypassed,Violation pair added to storeset,Memory Order Violations,Mismatched memory violation catches,Adjusted number of violations
,6238316500.0,0.292768,4326684.0,0.0,48.0,55.0,22.0,33.0
,6238266500.0,0.292765,3966218.0,360470.0,48.0,55.0,22.0,33.0
